Assignment_5
…
show(df)

## # A tibble: 20,640 x 10
##    longitude latitude housing_median_~ total_rooms total_bedrooms population
##        <dbl>    <dbl>            <dbl>       <dbl>          <dbl>      <dbl>
##  1     -122.     37.9               41         880            129        322
##  2     -122.     37.9               21        7099           1106       2401
##  3     -122.     37.8               52        1467            190        496
##  4     -122.     37.8               52        1274            235        558
##  5     -122.     37.8               52        1627            280        565
##  6     -122.     37.8               52         919            213        413
##  7     -122.     37.8               52        2535            489       1094
##  8     -122.     37.8               52        3104            687       1157
##  9     -122.     37.8               42        2555            665       1206
## 10     -122.     37.8               52        3549            707       1551
## # ... with 20,630 more rows, and 4 more variables: households <dbl>,
## #   median_income <dbl>, median_house_value <dbl>, ocean_proximity <chr>
…
