Assignment 4
…
show(df)

## # A tibble: 891 x 12
##    PassengerId Survived Pclass Name  Sex     Age SibSp Parch Ticket  Fare Cabin
##          <dbl>    <dbl>  <dbl> <chr> <chr> <dbl> <dbl> <dbl> <chr>  <dbl> <chr>
##  1           1        0      3 Brau~ male     22     1     0 A/5 2~  7.25 <NA> 
##  2           2        1      1 Cumi~ fema~    38     1     0 PC 17~ 71.3  C85  
##  3           3        1      3 Heik~ fema~    26     0     0 STON/~  7.92 <NA> 
##  4           4        1      1 Futr~ fema~    35     1     0 113803 53.1  C123 
##  5           5        0      3 Alle~ male     35     0     0 373450  8.05 <NA> 
##  6           6        0      3 Mora~ male     NA     0     0 330877  8.46 <NA> 
##  7           7        0      1 McCa~ male     54     0     0 17463  51.9  E46  
##  8           8        0      3 Pals~ male      2     3     1 349909 21.1  <NA> 
##  9           9        1      3 John~ fema~    27     0     2 347742 11.1  <NA> 
## 10          10        1      2 Nass~ fema~    14     1     0 237736 30.1  <NA> 
## # ... with 881 more rows, and 1 more variable: Embarked <chr>
…
